{
"content": [{"id": 1},{"id":2}],
"last":false,
"totalElements":80,
"totalPages":4,
"size":20,
"number":0,
"sort":null,
"numberOfElements":20,
"first":true
}